<?xml version='1.0' encoding='UTF-8'?>
<osm version='0.6' upload='false' generator='JOSM'>
  <node id='-102236' action='modify' visible='true' lat='50.99589730389' lon='11.33759324368' />
  <node id='-102238' action='modify' visible='true' lat='50.99602751333' lon='11.33815454952' />
  <node id='-102240' action='modify' visible='true' lat='50.99614235084' lon='11.33808729699' />
  <node id='-102242' action='modify' visible='true' lat='50.99601214172' lon='11.33752599115' />
  <node id='-102244' action='modify' visible='true' lat='50.9883647122' lon='11.31940429258' />
  <node id='-102246' action='modify' visible='true' lat='50.98836667242' lon='11.31969389817' />
  <node id='-102248' action='modify' visible='true' lat='50.98832990513' lon='11.31941591088' />
  <node id='-102250' action='modify' visible='true' lat='50.9883005463' lon='11.31944780531' />
  <node id='-102252' action='modify' visible='true' lat='50.98828110536' lon='11.31949512024' />
  <node id='-102254' action='modify' visible='true' lat='50.98827454202' lon='11.31955065239' />
  <node id='-102256' action='modify' visible='true' lat='50.98828185551' lon='11.3196059475' />
  <node id='-102258' action='modify' visible='true' lat='50.98830193239' lon='11.31965258739' />
  <node id='-102260' action='modify' visible='true' lat='50.98833171613' lon='11.31968347156' />
  <node id='-102262' action='modify' visible='true' lat='50.98840147947' lon='11.31968227987' />
  <node id='-102264' action='modify' visible='true' lat='50.98843083823' lon='11.31965038543' />
  <node id='-102266' action='modify' visible='true' lat='50.98845027911' lon='11.3196030705' />
  <node id='-102268' action='modify' visible='true' lat='50.98845684242' lon='11.31954753835' />
  <node id='-102270' action='modify' visible='true' lat='50.98844952897' lon='11.31949224324' />
  <node id='-102272' action='modify' visible='true' lat='50.98842945215' lon='11.31944560336' />
  <node id='-102274' action='modify' visible='true' lat='50.98839966847' lon='11.31941471919' />
  <node id='-102276' action='modify' visible='true' lat='50.98887338635' lon='11.32297453782' />
  <node id='-102278' action='modify' visible='true' lat='50.98883857965' lon='11.32298615612' />
  <node id='-102280' action='modify' visible='true' lat='50.98880922115' lon='11.32301805055' />
  <node id='-102282' action='modify' visible='true' lat='50.98878978042' lon='11.32306536548' />
  <node id='-102284' action='modify' visible='true' lat='50.98878321716' lon='11.32312089763' />
  <node id='-102286' action='modify' visible='true' lat='50.98879053056' lon='11.32317619274' />
  <node id='-102288' action='modify' visible='true' lat='50.98881060722' lon='11.32322283263' />
  <node id='-102290' action='modify' visible='true' lat='50.98884039064' lon='11.32325371679' />
  <node id='-102292' action='modify' visible='true' lat='50.98887534655' lon='11.3232641434' />
  <node id='-102294' action='modify' visible='true' lat='50.98891015322' lon='11.3232525251' />
  <node id='-102296' action='modify' visible='true' lat='50.98893951165' lon='11.32322063067' />
  <node id='-102298' action='modify' visible='true' lat='50.98895895232' lon='11.32317331574' />
  <node id='-102300' action='modify' visible='true' lat='50.98896551556' lon='11.32311778359' />
  <node id='-102302' action='modify' visible='true' lat='50.98895820219' lon='11.32306248848' />
  <node id='-102304' action='modify' visible='true' lat='50.98893812559' lon='11.32301584859' />
  <node id='-102306' action='modify' visible='true' lat='50.98890834223' lon='11.32298496443' />
  <node id='-102308' action='modify' visible='true' lat='50.98175861922' lon='11.32544831987' />
  <node id='-102310' action='modify' visible='true' lat='50.98173065332' lon='11.32565055133' />
  <node id='-102312' action='modify' visible='true' lat='50.9815188049' lon='11.32557663865' />
  <node id='-102314' action='modify' visible='true' lat='50.98154677093' lon='11.32537440719' />
  <node id='-102316' action='modify' visible='true' lat='50.97499826616' lon='11.3264881325' />
  <node id='-102318' action='modify' visible='true' lat='50.97498979268' lon='11.3268495556' />
  <node id='-102320' action='modify' visible='true' lat='50.97484873855' lon='11.32684121457' />
  <node id='-102322' action='modify' visible='true' lat='50.97485721206' lon='11.32647979148' />
  <node id='-102324' action='modify' visible='true' lat='50.99472089212' lon='11.33287809202' />
  <node id='-102326' action='modify' visible='true' lat='50.99469359027' lon='11.3331690429' />
  <node id='-102328' action='modify' visible='true' lat='50.99459028956' lon='11.33314457298' />
  <node id='-102330' action='modify' visible='true' lat='50.99461759148' lon='11.3328536221' />
  <node id='-109729' action='modify' visible='true' lat='50.97679995467' lon='11.31305297858' />
  <node id='-109730' action='modify' visible='true' lat='50.97683160352' lon='11.31340826369' />
  <node id='-109732' action='modify' visible='true' lat='50.97666925576' lon='11.31344474322' />
  <node id='-109734' action='modify' visible='true' lat='50.97663760679' lon='11.31308945811' />
  <way id='-102331' visible='true'>
    <nd ref='-102242' />
    <nd ref='-102240' />
    <nd ref='-102238' />
    <nd ref='-102236' />
    <nd ref='-102242' />
    <tag k='landuse' v='reservoir' />
  </way>
  <way id='-102332' action='modify' visible='true'>
    <nd ref='-102244' />
    <nd ref='-102248' />
    <nd ref='-102250' />
    <nd ref='-102252' />
    <nd ref='-102254' />
    <nd ref='-102256' />
    <nd ref='-102258' />
    <nd ref='-102260' />
    <nd ref='-102246' />
    <nd ref='-102262' />
    <nd ref='-102264' />
    <nd ref='-102266' />
    <nd ref='-102268' />
    <nd ref='-102270' />
    <nd ref='-102272' />
    <nd ref='-102274' />
    <nd ref='-102244' />
    <tag k='landuse' v='reservoir' />
  </way>
  <way id='-102333' visible='true'>
    <nd ref='-102276' />
    <nd ref='-102278' />
    <nd ref='-102280' />
    <nd ref='-102282' />
    <nd ref='-102284' />
    <nd ref='-102286' />
    <nd ref='-102288' />
    <nd ref='-102290' />
    <nd ref='-102292' />
    <nd ref='-102294' />
    <nd ref='-102296' />
    <nd ref='-102298' />
    <nd ref='-102300' />
    <nd ref='-102302' />
    <nd ref='-102304' />
    <nd ref='-102306' />
    <nd ref='-102276' />
    <tag k='landuse' v='reservoir' />
  </way>
  <way id='-102334' action='modify' visible='true'>
    <nd ref='-102308' />
    <nd ref='-102310' />
    <nd ref='-102312' />
    <nd ref='-102314' />
    <nd ref='-102308' />
    <tag k='landuse' v='reservoir' />
  </way>
  <way id='-102335' action='modify' visible='true'>
    <nd ref='-102316' />
    <nd ref='-102318' />
    <nd ref='-102320' />
    <nd ref='-102322' />
    <nd ref='-102316' />
    <tag k='landuse' v='reservoir' />
  </way>
  <way id='-102336' action='modify' visible='true'>
    <nd ref='-102324' />
    <nd ref='-102326' />
    <nd ref='-102328' />
    <nd ref='-102330' />
    <nd ref='-102324' />
    <tag k='landuse' v='reservoir' />
  </way>
  <way id='-109731' action='modify' visible='true'>
    <nd ref='-109729' />
    <nd ref='-109730' />
    <nd ref='-109732' />
    <nd ref='-109734' />
    <nd ref='-109729' />
    <tag k='landuse' v='reservoir' />
  </way>
</osm>
